2016-09-24 14:15:57
DEVICE ID SESSION EMPTY


2016-09-26 15:09:29
OSSN_USER SESSION EMPTY


2016-09-28 12:41:08
DEVICE ID SESSION EMPTY


2016-10-04 10:45:27
DEVICE ID SESSION EMPTY


2016-10-04 10:50:21
DEVICE ID SESSION EMPTY


2016-10-04 11:17:41
DEVICE ID SESSION EMPTY


2016-11-13 08:54:51
DEVICE ID SESSION EMPTY


2016-11-16 12:05:25
OSSN_USER SESSION EMPTY


2016-11-16 12:05:25
DEVICE ID SESSION EMPTY


